{ "compressionlevel":-1,
 "height":1,
 "infinite":false,
 "layers":[
        {
         "data":[23],
         "height":1,
         "id":1,
         "name":"Tile Layer 1",
         "opacity":1,
         "type":"tilelayer",
         "visible":true,
         "width":1,
         "x":0,
         "y":0
        }],
 "nextlayerid":2,
 "nextobjectid":1,
 "orientation":"orthogonal",
 "renderorder":"right-down",
 "tiledversion":"1.4.3",
 "tileheight":32,
 "tilesets":[
        {
         "columns":20,
         "firstgid":1,
         "image":"RPG Nature Tileset.png",
         "imageheight":288,
         "imagewidth":641,
         "margin":0,
         "name":"RPG Nature Tileset",
         "spacing":0,
         "tilecount":180,
         "tileheight":32,
         "tilewidth":32
        }],
 "tilewidth":32,
 "type":"map",
 "version":1.4,
 "width":1
}